info face="Roboto" size=20 bold=0 italic=0 charset="" unicode=1 stretchH=100 smooth=1 aa=1 padding=0,0,0,0 spacing=1,1 outline=0
common lineHeight=20 base=16 scaleW=512 scaleH=512 pages=1 packed=0 alphaChnl=0 redChnl=4 greenChnl=4 blueChnl=4
page id=0 file="main_20_0.png"
chars count=365
char id=0    x=510   y=0     width=0     height=20    xoffset=0     yoffset=0     xadvance=15    page=0  chnl=15
char id=2    x=511   y=0     width=0     height=20    xoffset=0     yoffset=0     xadvance=0     page=0  chnl=15
char id=9    x=510   y=0     width=0     height=20    xoffset=0     yoffset=0     xadvance=0     page=0  chnl=15
char id=13   x=511   y=0     width=0     height=20    xoffset=0     yoffset=0     xadvance=4     page=0  chnl=15
char id=32   x=510   y=0     width=0     height=20    xoffset=0     yoffset=0     xadvance=4     page=0  chnl=15
char id=33   x=276   y=147   width=4     height=20    xoffset=0     yoffset=0     xadvance=4     page=0  chnl=15
char id=34   x=165   y=147   width=6     height=20    xoffset=0     yoffset=0     xadvance=5     page=0  chnl=15
char id=35   x=282   y=63    width=10    height=20    xoffset=0     yoffset=0     xadvance=9     page=0  chnl=15
char id=36   x=313   y=84    width=9     height=20    xoffset=0     yoffset=0     xadvance=9     page=0  chnl=15
char id=37   x=199   y=42    width=11    height=20    xoffset=0     yoffset=0     xadvance=11    page=0  chnl=15
char id=38   x=211   y=42    width=11    height=20    xoffset=-1    yoffset=0     xadvance=9     page=0  chnl=15
char id=39   x=296   y=147   width=4     height=20    xoffset=0     yoffset=0     xadvance=3     page=0  chnl=15
char id=40   x=172   y=147   width=6     height=20    xoffset=0     yoffset=0     xadvance=5     page=0  chnl=15
char id=41   x=179   y=147   width=6     height=20    xoffset=0     yoffset=0     xadvance=5     page=0  chnl=15
char id=42   x=63    y=147   width=7     height=20    xoffset=0     yoffset=0     xadvance=6     page=0  chnl=15
char id=43   x=412   y=126   width=8     height=20    xoffset=1     yoffset=0     xadvance=9     page=0  chnl=15
char id=44   x=245   y=147   width=5     height=20    xoffset=-1    yoffset=0     xadvance=3     page=0  chnl=15
char id=45   x=207   y=147   width=6     height=20    xoffset=0     yoffset=0     xadvance=7     page=0  chnl=15
char id=46   x=291   y=147   width=4     height=20    xoffset=0     yoffset=0     xadvance=4     page=0  chnl=15
char id=47   x=448   y=126   width=8     height=20    xoffset=-1    yoffset=0     xadvance=6     page=0  chnl=15
char id=48   x=413   y=84    width=9     height=20    xoffset=0     yoffset=0     xadvance=8     page=0  chnl=15
char id=49   x=214   y=147   width=6     height=20    xoffset=1     yoffset=0     xadvance=8     page=0  chnl=15
char id=50   x=425   y=63    width=10    height=20    xoffset=0     yoffset=0     xadvance=8     page=0  chnl=15
char id=51   x=423   y=84    width=9     height=20    xoffset=0     yoffset=0     xadvance=8     page=0  chnl=15
char id=52   x=433   y=84    width=9     height=20    xoffset=0     yoffset=0     xadvance=8     page=0  chnl=15
char id=53   x=443   y=84    width=9     height=20    xoffset=0     yoffset=0     xadvance=8     page=0  chnl=15
char id=54   x=453   y=84    width=9     height=20    xoffset=0     yoffset=0     xadvance=8     page=0  chnl=15
char id=55   x=463   y=84    width=9     height=20    xoffset=0     yoffset=0     xadvance=8     page=0  chnl=15
char id=56   x=421   y=126   width=8     height=20    xoffset=0     yoffset=0     xadvance=8     page=0  chnl=15
char id=57   x=473   y=84    width=9     height=20    xoffset=0     yoffset=0     xadvance=8     page=0  chnl=15
char id=58   x=311   y=147   width=4     height=20    xoffset=0     yoffset=0     xadvance=4     page=0  chnl=15
char id=59   x=321   y=147   width=4     height=20    xoffset=0     yoffset=0     xadvance=4     page=0  chnl=15
char id=60   x=483   y=84    width=9     height=20    xoffset=-1    yoffset=0     xadvance=8     page=0  chnl=15
char id=61   x=457   y=126   width=8     height=20    xoffset=0     yoffset=0     xadvance=8     page=0  chnl=15
char id=62   x=475   y=126   width=8     height=20    xoffset=0     yoffset=0     xadvance=8     page=0  chnl=15
char id=63   x=493   y=84    width=9     height=20    xoffset=-1    yoffset=0     xadvance=7     page=0  chnl=15
char id=64   x=383   y=0     width=14    height=20    xoffset=0     yoffset=0     xadvance=13    page=0  chnl=15
char id=65   x=12    y=63    width=11    height=20    xoffset=-1    yoffset=0     xadvance=9     page=0  chnl=15
char id=66   x=77    y=84    width=10    height=20    xoffset=0     yoffset=0     xadvance=10    page=0  chnl=15
char id=67   x=0     y=105   width=9     height=20    xoffset=0     yoffset=0     xadvance=10    page=0  chnl=15
char id=68   x=48    y=63    width=11    height=20    xoffset=0     yoffset=0     xadvance=10    page=0  chnl=15
char id=69   x=10    y=105   width=9     height=20    xoffset=0     yoffset=0     xadvance=8     page=0  chnl=15
char id=70   x=20    y=105   width=9     height=20    xoffset=0     yoffset=0     xadvance=8     page=0  chnl=15
char id=71   x=121   y=84    width=10    height=20    xoffset=0     yoffset=0     xadvance=10    page=0  chnl=15
char id=72   x=96    y=63    width=11    height=20    xoffset=0     yoffset=0     xadvance=11    page=0  chnl=15
char id=73   x=266   y=147   width=4     height=20    xoffset=0     yoffset=0     xadvance=4     page=0  chnl=15
char id=74   x=30    y=105   width=9     height=20    xoffset=0     yoffset=0     xadvance=8     page=0  chnl=15
char id=75   x=143   y=84    width=10    height=20    xoffset=0     yoffset=0     xadvance=10    page=0  chnl=15
char id=76   x=40    y=105   width=9     height=20    xoffset=0     yoffset=0     xadvance=8     page=0  chnl=15
char id=77   x=155   y=21    width=13    height=20    xoffset=0     yoffset=0     xadvance=13    page=0  chnl=15
char id=78   x=156   y=63    width=11    height=20    xoffset=0     yoffset=0     xadvance=11    page=0  chnl=15
char id=79   x=168   y=63    width=11    height=20    xoffset=0     yoffset=0     xadvance=10    page=0  chnl=15
char id=80   x=50    y=105   width=9     height=20    xoffset=0     yoffset=0     xadvance=10    page=0  chnl=15
char id=81   x=192   y=63    width=11    height=20    xoffset=0     yoffset=0     xadvance=10    page=0  chnl=15
char id=82   x=176   y=84    width=10    height=20    xoffset=0     yoffset=0     xadvance=10    page=0  chnl=15
char id=83   x=60    y=105   width=9     height=20    xoffset=0     yoffset=0     xadvance=9     page=0  chnl=15
char id=84   x=198   y=84    width=10    height=20    xoffset=0     yoffset=0     xadvance=9     page=0  chnl=15
char id=85   x=115   y=42    width=11    height=20    xoffset=0     yoffset=0     xadvance=10    page=0  chnl=15
char id=86   x=127   y=42    width=11    height=20    xoffset=-1    yoffset=0     xadvance=9     page=0  chnl=15
char id=87   x=212   y=0     width=15    height=20    xoffset=-1    yoffset=0     xadvance=13    page=0  chnl=15
char id=88   x=209   y=84    width=10    height=20    xoffset=0     yoffset=0     xadvance=9     page=0  chnl=15
char id=89   x=151   y=42    width=11    height=20    xoffset=-1    yoffset=0     xadvance=9     page=0  chnl=15
char id=90   x=70    y=105   width=9     height=20    xoffset=0     yoffset=0     xadvance=9     page=0  chnl=15
char id=91   x=227   y=147   width=5     height=20    xoffset=0     yoffset=0     xadvance=4     page=0  chnl=15
char id=92   x=484   y=126   width=8     height=20    xoffset=-1    yoffset=0     xadvance=6     page=0  chnl=15
char id=93   x=233   y=147   width=5     height=20    xoffset=-1    yoffset=0     xadvance=4     page=0  chnl=15
char id=94   x=87    y=147   width=7     height=20    xoffset=0     yoffset=0     xadvance=6     page=0  chnl=15
char id=95   x=80    y=105   width=9     height=20    xoffset=-1    yoffset=0     xadvance=7     page=0  chnl=15
char id=96   x=239   y=147   width=5     height=20    xoffset=0     yoffset=0     xadvance=5     page=0  chnl=15
char id=97   x=90    y=105   width=9     height=20    xoffset=0     yoffset=0     xadvance=8     page=0  chnl=15
char id=98   x=100   y=105   width=9     height=20    xoffset=0     yoffset=0     xadvance=9     page=0  chnl=15
char id=99   x=503   y=0     width=8     height=20    xoffset=0     yoffset=0     xadvance=8     page=0  chnl=15
char id=100  x=110   y=105   width=9     height=20    xoffset=0     yoffset=0     xadvance=9     page=0  chnl=15
char id=101  x=502   y=63    width=9     height=20    xoffset=0     yoffset=0     xadvance=8     page=0  chnl=15
char id=102  x=143   y=147   width=7     height=20    xoffset=0     yoffset=0     xadvance=5     page=0  chnl=15
char id=103  x=120   y=105   width=9     height=20    xoffset=0     yoffset=0     xadvance=9     page=0  chnl=15
char id=104  x=130   y=105   width=9     height=20    xoffset=0     yoffset=0     xadvance=9     page=0  chnl=15
char id=105  x=271   y=147   width=4     height=20    xoffset=0     yoffset=0     xadvance=4     page=0  chnl=15
char id=106  x=186   y=147   width=6     height=20    xoffset=-2    yoffset=0     xadvance=4     page=0  chnl=15
char id=107  x=502   y=126   width=8     height=20    xoffset=0     yoffset=0     xadvance=8     page=0  chnl=15
char id=108  x=256   y=147   width=4     height=20    xoffset=0     yoffset=0     xadvance=4     page=0  chnl=15
char id=109  x=353   y=0     width=14    height=20    xoffset=0     yoffset=0     xadvance=13    page=0  chnl=15
char id=110  x=140   y=105   width=9     height=20    xoffset=0     yoffset=0     xadvance=9     page=0  chnl=15
char id=111  x=150   y=105   width=9     height=20    xoffset=0     yoffset=0     xadvance=9     page=0  chnl=15
char id=112  x=160   y=105   width=9     height=20    xoffset=0     yoffset=0     xadvance=9     page=0  chnl=15
char id=113  x=170   y=105   width=9     height=20    xoffset=0     yoffset=0     xadvance=9     page=0  chnl=15
char id=114  x=158   y=147   width=6     height=20    xoffset=0     yoffset=0     xadvance=5     page=0  chnl=15
char id=115  x=180   y=105   width=9     height=20    xoffset=0     yoffset=0     xadvance=8     page=0  chnl=15
char id=116  x=193   y=147   width=6     height=20    xoffset=0     yoffset=0     xadvance=5     page=0  chnl=15
char id=117  x=190   y=105   width=9     height=20    xoffset=0     yoffset=0     xadvance=9     page=0  chnl=15
char id=118  x=340   y=126   width=8     height=20    xoffset=0     yoffset=0     xadvance=8     page=0  chnl=15
char id=119  x=99    y=21    width=13    height=20    xoffset=-1    yoffset=0     xadvance=11    page=0  chnl=15
char id=120  x=200   y=105   width=9     height=20    xoffset=-1    yoffset=0     xadvance=8     page=0  chnl=15
char id=121  x=210   y=105   width=9     height=20    xoffset=0     yoffset=0     xadvance=8     page=0  chnl=15
char id=122  x=394   y=126   width=8     height=20    xoffset=0     yoffset=0     xadvance=8     page=0  chnl=15
char id=123  x=135   y=147   width=7     height=20    xoffset=-1    yoffset=0     xadvance=5     page=0  chnl=15
char id=124  x=261   y=147   width=4     height=20    xoffset=0     yoffset=0     xadvance=4     page=0  chnl=15
char id=125  x=200   y=147   width=6     height=20    xoffset=0     yoffset=0     xadvance=5     page=0  chnl=15
char id=126  x=165   y=84    width=10    height=20    xoffset=0     yoffset=0     xadvance=10    page=0  chnl=15
char id=160  x=511   y=0     width=0     height=20    xoffset=0     yoffset=0     xadvance=4     page=0  chnl=15
char id=162  x=376   y=126   width=8     height=20    xoffset=0     yoffset=0     xadvance=8     page=0  chnl=15
char id=163  x=11    y=84    width=10    height=20    xoffset=0     yoffset=0     xadvance=9     page=0  chnl=15
char id=165  x=373   y=84    width=9     height=20    xoffset=0     yoffset=0     xadvance=9     page=0  chnl=15
char id=168  x=439   y=126   width=8     height=20    xoffset=0     yoffset=0     xadvance=7     page=0  chnl=15
char id=169  x=436   y=21    width=12    height=20    xoffset=0     yoffset=0     xadvance=12    page=0  chnl=15
char id=171  x=79    y=147   width=7     height=20    xoffset=0     yoffset=0     xadvance=7     page=0  chnl=15
char id=173  x=71    y=147   width=7     height=20    xoffset=0     yoffset=0     xadvance=7     page=0  chnl=15
char id=174  x=332   y=21    width=12    height=20    xoffset=0     yoffset=0     xadvance=12    page=0  chnl=15
char id=180  x=221   y=147   width=5     height=20    xoffset=0     yoffset=0     xadvance=5     page=0  chnl=15
char id=184  x=286   y=147   width=4     height=20    xoffset=0     yoffset=0     xadvance=4     page=0  chnl=15
char id=187  x=45    y=147   width=8     height=20    xoffset=0     yoffset=0     xadvance=7     page=0  chnl=15
char id=1024 x=210   y=126   width=9     height=20    xoffset=0     yoffset=0     xadvance=8     page=0  chnl=15
char id=1026 x=397   y=21    width=12    height=20    xoffset=0     yoffset=0     xadvance=11    page=0  chnl=15
char id=1027 x=190   y=126   width=9     height=20    xoffset=0     yoffset=0     xadvance=8     page=0  chnl=15
char id=1028 x=348   y=63    width=10    height=20    xoffset=0     yoffset=0     xadvance=10    page=0  chnl=15
char id=1029 x=160   y=126   width=9     height=20    xoffset=0     yoffset=0     xadvance=9     page=0  chnl=15
char id=1030 x=306   y=147   width=4     height=20    xoffset=0     yoffset=0     xadvance=4     page=0  chnl=15
char id=1031 x=111   y=147   width=7     height=20    xoffset=-1    yoffset=0     xadvance=4     page=0  chnl=15
char id=1032 x=150   y=126   width=9     height=20    xoffset=0     yoffset=0     xadvance=8     page=0  chnl=15
char id=1033 x=57    y=0     width=17    height=20    xoffset=0     yoffset=0     xadvance=16    page=0  chnl=15
char id=1034 x=93    y=0     width=17    height=20    xoffset=0     yoffset=0     xadvance=16    page=0  chnl=15
char id=1035 x=127   y=21    width=13    height=20    xoffset=0     yoffset=0     xadvance=12    page=0  chnl=15
char id=1036 x=381   y=63    width=10    height=20    xoffset=0     yoffset=0     xadvance=10    page=0  chnl=15
char id=1037 x=204   y=63    width=11    height=20    xoffset=0     yoffset=0     xadvance=11    page=0  chnl=15
char id=1038 x=458   y=63    width=10    height=20    xoffset=0     yoffset=0     xadvance=9     page=0  chnl=15
char id=1039 x=91    y=42    width=11    height=20    xoffset=0     yoffset=0     xadvance=11    page=0  chnl=15
char id=1040 x=103   y=42    width=11    height=20    xoffset=-1    yoffset=0     xadvance=9     page=0  chnl=15
char id=1041 x=70    y=126   width=9     height=20    xoffset=0     yoffset=0     xadvance=9     page=0  chnl=15
char id=1042 x=22    y=84    width=10    height=20    xoffset=0     yoffset=0     xadvance=10    page=0  chnl=15
char id=1043 x=40    y=126   width=9     height=20    xoffset=0     yoffset=0     xadvance=8     page=0  chnl=15
char id=1044 x=488   y=0     width=14    height=20    xoffset=-1    yoffset=0     xadvance=12    page=0  chnl=15
char id=1045 x=30    y=126   width=9     height=20    xoffset=0     yoffset=0     xadvance=8     page=0  chnl=15
char id=1046 x=0     y=21    width=14    height=20    xoffset=-1    yoffset=0     xadvance=12    page=0  chnl=15
char id=1047 x=154   y=84    width=10    height=20    xoffset=0     yoffset=0     xadvance=10    page=0  chnl=15
char id=1048 x=139   y=42    width=11    height=20    xoffset=0     yoffset=0     xadvance=11    page=0  chnl=15
char id=1049 x=163   y=42    width=11    height=20    xoffset=0     yoffset=0     xadvance=11    page=0  chnl=15
char id=1050 x=187   y=84    width=10    height=20    xoffset=0     yoffset=0     xadvance=10    page=0  chnl=15
char id=1051 x=108   y=63    width=11    height=20    xoffset=0     yoffset=0     xadvance=11    page=0  chnl=15
char id=1052 x=211   y=21    width=13    height=20    xoffset=0     yoffset=0     xadvance=13    page=0  chnl=15
char id=1053 x=175   y=42    width=11    height=20    xoffset=0     yoffset=0     xadvance=11    page=0  chnl=15
char id=1054 x=187   y=42    width=11    height=20    xoffset=0     yoffset=0     xadvance=10    page=0  chnl=15
char id=1055 x=223   y=42    width=11    height=20    xoffset=0     yoffset=0     xadvance=11    page=0  chnl=15
char id=1056 x=480   y=105   width=9     height=20    xoffset=0     yoffset=0     xadvance=10    page=0  chnl=15
char id=1057 x=470   y=105   width=9     height=20    xoffset=0     yoffset=0     xadvance=10    page=0  chnl=15
char id=1058 x=326   y=63    width=10    height=20    xoffset=0     yoffset=0     xadvance=9     page=0  chnl=15
char id=1059 x=337   y=63    width=10    height=20    xoffset=0     yoffset=0     xadvance=9     page=0  chnl=15
char id=1060 x=235   y=42    width=11    height=20    xoffset=0     yoffset=0     xadvance=11    page=0  chnl=15
char id=1061 x=403   y=63    width=10    height=20    xoffset=0     yoffset=0     xadvance=9     page=0  chnl=15
char id=1062 x=306   y=21    width=12    height=20    xoffset=0     yoffset=0     xadvance=11    page=0  chnl=15
char id=1063 x=247   y=42    width=11    height=20    xoffset=0     yoffset=0     xadvance=10    page=0  chnl=15
char id=1064 x=128   y=0     width=16    height=20    xoffset=0     yoffset=0     xadvance=15    page=0  chnl=15
char id=1065 x=39    y=0     width=17    height=20    xoffset=0     yoffset=0     xadvance=16    page=0  chnl=15
char id=1066 x=449   y=21    width=12    height=20    xoffset=-1    yoffset=0     xadvance=11    page=0  chnl=15
char id=1067 x=57    y=21    width=13    height=20    xoffset=0     yoffset=0     xadvance=13    page=0  chnl=15
char id=1068 x=400   y=105   width=9     height=20    xoffset=0     yoffset=0     xadvance=9     page=0  chnl=15
char id=1069 x=259   y=42    width=11    height=20    xoffset=0     yoffset=0     xadvance=10    page=0  chnl=15
char id=1070 x=413   y=0     width=14    height=20    xoffset=0     yoffset=0     xadvance=13    page=0  chnl=15
char id=1071 x=390   y=105   width=9     height=20    xoffset=0     yoffset=0     xadvance=9     page=0  chnl=15
char id=1072 x=380   y=105   width=9     height=20    xoffset=0     yoffset=0     xadvance=8     page=0  chnl=15
char id=1073 x=370   y=105   width=9     height=20    xoffset=0     yoffset=0     xadvance=8     page=0  chnl=15
char id=1074 x=340   y=105   width=9     height=20    xoffset=0     yoffset=0     xadvance=9     page=0  chnl=15
char id=1075 x=103   y=147   width=7     height=20    xoffset=0     yoffset=0     xadvance=6     page=0  chnl=15
char id=1076 x=293   y=63    width=10    height=20    xoffset=0     yoffset=0     xadvance=10    page=0  chnl=15
char id=1077 x=310   y=105   width=9     height=20    xoffset=0     yoffset=0     xadvance=8     page=0  chnl=15
char id=1078 x=0     y=42    width=12    height=20    xoffset=0     yoffset=0     xadvance=11    page=0  chnl=15
char id=1079 x=280   y=105   width=9     height=20    xoffset=0     yoffset=0     xadvance=8     page=0  chnl=15
char id=1080 x=270   y=105   width=9     height=20    xoffset=0     yoffset=0     xadvance=9     page=0  chnl=15
char id=1081 x=260   y=105   width=9     height=20    xoffset=0     yoffset=0     xadvance=9     page=0  chnl=15
char id=1082 x=60    y=126   width=9     height=20    xoffset=0     yoffset=0     xadvance=8     page=0  chnl=15
char id=1083 x=250   y=105   width=9     height=20    xoffset=0     yoffset=0     xadvance=8     page=0  chnl=15
char id=1084 x=280   y=21    width=12    height=20    xoffset=0     yoffset=0     xadvance=11    page=0  chnl=15
char id=1085 x=240   y=105   width=9     height=20    xoffset=0     yoffset=0     xadvance=9     page=0  chnl=15
char id=1086 x=230   y=105   width=9     height=20    xoffset=0     yoffset=0     xadvance=9     page=0  chnl=15
char id=1087 x=343   y=84    width=9     height=20    xoffset=0     yoffset=0     xadvance=9     page=0  chnl=15
char id=1088 x=283   y=84    width=9     height=20    xoffset=0     yoffset=0     xadvance=9     page=0  chnl=15
char id=1089 x=0     y=147   width=8     height=20    xoffset=0     yoffset=0     xadvance=8     page=0  chnl=15
char id=1090 x=18    y=147   width=8     height=20    xoffset=0     yoffset=0     xadvance=8     page=0  chnl=15
char id=1091 x=170   y=126   width=9     height=20    xoffset=0     yoffset=0     xadvance=8     page=0  chnl=15
char id=1092 x=338   y=0     width=14    height=20    xoffset=0     yoffset=0     xadvance=13    page=0  chnl=15
char id=1093 x=500   y=105   width=9     height=20    xoffset=-1    yoffset=0     xadvance=8     page=0  chnl=15
char id=1094 x=469   y=63    width=10    height=20    xoffset=0     yoffset=0     xadvance=9     page=0  chnl=15
char id=1095 x=383   y=84    width=9     height=20    xoffset=0     yoffset=0     xadvance=8     page=0  chnl=15
char id=1096 x=197   y=21    width=13    height=20    xoffset=0     yoffset=0     xadvance=12    page=0  chnl=15
char id=1097 x=398   y=0     width=14    height=20    xoffset=0     yoffset=0     xadvance=13    page=0  chnl=15
char id=1098 x=227   y=63    width=10    height=20    xoffset=0     yoffset=0     xadvance=9     page=0  chnl=15
char id=1099 x=345   y=21    width=12    height=20    xoffset=0     yoffset=0     xadvance=12    page=0  chnl=15
char id=1100 x=290   y=105   width=9     height=20    xoffset=0     yoffset=0     xadvance=8     page=0  chnl=15
char id=1101 x=350   y=105   width=9     height=20    xoffset=0     yoffset=0     xadvance=8     page=0  chnl=15
char id=1102 x=253   y=21    width=13    height=20    xoffset=0     yoffset=0     xadvance=12    page=0  chnl=15
char id=1103 x=10    y=126   width=9     height=20    xoffset=0     yoffset=0     xadvance=9     page=0  chnl=15
char id=1104 x=50    y=126   width=9     height=20    xoffset=0     yoffset=0     xadvance=8     page=0  chnl=15
char id=1105 x=80    y=126   width=9     height=20    xoffset=0     yoffset=0     xadvance=8     page=0  chnl=15
char id=1106 x=99    y=84    width=10    height=20    xoffset=-1    yoffset=0     xadvance=9     page=0  chnl=15
char id=1107 x=95    y=147   width=7     height=20    xoffset=0     yoffset=0     xadvance=6     page=0  chnl=15
char id=1108 x=9     y=147   width=8     height=20    xoffset=0     yoffset=0     xadvance=8     page=0  chnl=15
char id=1109 x=120   y=126   width=9     height=20    xoffset=0     yoffset=0     xadvance=8     page=0  chnl=15
char id=1110 x=281   y=147   width=4     height=20    xoffset=0     yoffset=0     xadvance=4     page=0  chnl=15
char id=1111 x=430   y=126   width=8     height=20    xoffset=-2    yoffset=0     xadvance=4     page=0  chnl=15
char id=1112 x=151   y=147   width=6     height=20    xoffset=-2    yoffset=0     xadvance=4     page=0  chnl=15
char id=1113 x=323   y=0     width=14    height=20    xoffset=0     yoffset=0     xadvance=13    page=0  chnl=15
char id=1114 x=308   y=0     width=14    height=20    xoffset=0     yoffset=0     xadvance=13    page=0  chnl=15
char id=1115 x=238   y=63    width=10    height=20    xoffset=-1    yoffset=0     xadvance=9     page=0  chnl=15
char id=1116 x=270   y=126   width=9     height=20    xoffset=0     yoffset=0     xadvance=8     page=0  chnl=15
char id=1117 x=420   y=105   width=9     height=20    xoffset=0     yoffset=0     xadvance=9     page=0  chnl=15
char id=1118 x=320   y=126   width=9     height=20    xoffset=0     yoffset=0     xadvance=8     page=0  chnl=15
char id=1119 x=253   y=84    width=9     height=20    xoffset=0     yoffset=0     xadvance=9     page=0  chnl=15
char id=1120 x=196   y=0     width=15    height=20    xoffset=0     yoffset=0     xadvance=14    page=0  chnl=15
char id=1121 x=423   y=21    width=12    height=20    xoffset=-1    yoffset=0     xadvance=10    page=0  chnl=15
char id=1122 x=501   y=21    width=10    height=20    xoffset=-1    yoffset=0     xadvance=9     page=0  chnl=15
char id=1123 x=231   y=84    width=10    height=20    xoffset=-1    yoffset=0     xadvance=8     page=0  chnl=15
char id=1124 x=141   y=21    width=13    height=20    xoffset=0     yoffset=0     xadvance=13    page=0  chnl=15
char id=1125 x=283   y=42    width=11    height=20    xoffset=0     yoffset=0     xadvance=11    page=0  chnl=15
char id=1126 x=295   y=42    width=11    height=20    xoffset=-1    yoffset=0     xadvance=9     page=0  chnl=15
char id=1127 x=220   y=105   width=9     height=20    xoffset=-1    yoffset=0     xadvance=8     page=0  chnl=15
char id=1128 x=71    y=21    width=13    height=20    xoffset=1     yoffset=0     xadvance=13    page=0  chnl=15
char id=1129 x=29    y=21    width=13    height=20    xoffset=0     yoffset=0     xadvance=11    page=0  chnl=15
char id=1130 x=43    y=21    width=13    height=20    xoffset=0     yoffset=0     xadvance=13    page=0  chnl=15
char id=1131 x=267   y=21    width=12    height=20    xoffset=0     yoffset=0     xadvance=11    page=0  chnl=15
char id=1132 x=20    y=0     width=18    height=20    xoffset=0     yoffset=0     xadvance=17    page=0  chnl=15
char id=1133 x=244   y=0     width=15    height=20    xoffset=0     yoffset=0     xadvance=15    page=0  chnl=15
char id=1134 x=349   y=126   width=8     height=20    xoffset=0     yoffset=0     xadvance=8     page=0  chnl=15
char id=1135 x=27    y=147   width=8     height=20    xoffset=0     yoffset=0     xadvance=7     page=0  chnl=15
char id=1136 x=307   y=42    width=11    height=20    xoffset=0     yoffset=0     xadvance=10    page=0  chnl=15
char id=1137 x=78    y=42    width=12    height=20    xoffset=0     yoffset=0     xadvance=11    page=0  chnl=15
char id=1138 x=319   y=42    width=11    height=20    xoffset=0     yoffset=0     xadvance=10    page=0  chnl=15
char id=1139 x=300   y=105   width=9     height=20    xoffset=0     yoffset=0     xadvance=9     page=0  chnl=15
char id=1140 x=488   y=21    width=12    height=20    xoffset=-1    yoffset=0     xadvance=9     page=0  chnl=15
char id=1141 x=320   y=105   width=9     height=20    xoffset=-1    yoffset=0     xadvance=8     page=0  chnl=15
char id=1142 x=475   y=21    width=12    height=20    xoffset=-1    yoffset=0     xadvance=9     page=0  chnl=15
char id=1143 x=330   y=105   width=9     height=20    xoffset=-1    yoffset=0     xadvance=8     page=0  chnl=15
char id=1144 x=0     y=0     width=19    height=20    xoffset=0     yoffset=0     xadvance=18    page=0  chnl=15
char id=1145 x=75    y=0     width=17    height=20    xoffset=0     yoffset=0     xadvance=16    page=0  chnl=15
char id=1146 x=331   y=42    width=11    height=20    xoffset=0     yoffset=0     xadvance=10    page=0  chnl=15
char id=1147 x=360   y=105   width=9     height=20    xoffset=0     yoffset=0     xadvance=9     page=0  chnl=15
char id=1148 x=276   y=0     width=15    height=20    xoffset=0     yoffset=0     xadvance=14    page=0  chnl=15
char id=1149 x=15    y=21    width=13    height=20    xoffset=0     yoffset=0     xadvance=12    page=0  chnl=15
char id=1150 x=260   y=0     width=15    height=20    xoffset=0     yoffset=0     xadvance=14    page=0  chnl=15
char id=1151 x=462   y=21    width=12    height=20    xoffset=-1    yoffset=0     xadvance=10    page=0  chnl=15
char id=1152 x=410   y=105   width=9     height=20    xoffset=0     yoffset=0     xadvance=10    page=0  chnl=15
char id=1153 x=358   y=126   width=8     height=20    xoffset=0     yoffset=0     xadvance=8     page=0  chnl=15
char id=1154 x=66    y=84    width=10    height=20    xoffset=0     yoffset=0     xadvance=9     page=0  chnl=15
char id=1155 x=127   y=147   width=7     height=20    xoffset=1     yoffset=0     xadvance=9     page=0  chnl=15
char id=1156 x=36    y=147   width=8     height=20    xoffset=0     yoffset=0     xadvance=9     page=0  chnl=15
char id=1157 x=251   y=147   width=4     height=20    xoffset=1     yoffset=0     xadvance=6     page=0  chnl=15
char id=1158 x=326   y=147   width=3     height=20    xoffset=2     yoffset=0     xadvance=6     page=0  chnl=15
char id=1160 x=111   y=0     width=16    height=20    xoffset=0     yoffset=0     xadvance=15    page=0  chnl=15
char id=1161 x=179   y=0     width=16    height=20    xoffset=-1    yoffset=0     xadvance=15    page=0  chnl=15
char id=1162 x=52    y=42    width=12    height=20    xoffset=0     yoffset=0     xadvance=10    page=0  chnl=15
char id=1163 x=260   y=63    width=10    height=20    xoffset=0     yoffset=0     xadvance=8     page=0  chnl=15
char id=1164 x=249   y=63    width=10    height=20    xoffset=-1    yoffset=0     xadvance=9     page=0  chnl=15
char id=1165 x=88    y=84    width=10    height=20    xoffset=-1    yoffset=0     xadvance=8     page=0  chnl=15
char id=1166 x=430   y=105   width=9     height=20    xoffset=0     yoffset=0     xadvance=9     page=0  chnl=15
char id=1167 x=440   y=105   width=9     height=20    xoffset=0     yoffset=0     xadvance=9     page=0  chnl=15
char id=1168 x=450   y=105   width=9     height=20    xoffset=0     yoffset=0     xadvance=8     page=0  chnl=15
char id=1169 x=503   y=84    width=8     height=20    xoffset=0     yoffset=0     xadvance=7     page=0  chnl=15
char id=1170 x=0     y=84    width=10    height=20    xoffset=-1    yoffset=0     xadvance=8     page=0  chnl=15
char id=1171 x=493   y=126   width=8     height=20    xoffset=-1    yoffset=0     xadvance=6     page=0  chnl=15
char id=1172 x=392   y=63    width=10    height=20    xoffset=0     yoffset=0     xadvance=9     page=0  chnl=15
char id=1173 x=460   y=105   width=9     height=20    xoffset=0     yoffset=0     xadvance=8     page=0  chnl=15
char id=1174 x=292   y=0     width=15    height=20    xoffset=-1    yoffset=0     xadvance=12    page=0  chnl=15
char id=1175 x=26    y=42    width=12    height=20    xoffset=0     yoffset=0     xadvance=11    page=0  chnl=15
char id=1176 x=447   y=63    width=10    height=20    xoffset=0     yoffset=0     xadvance=10    page=0  chnl=15
char id=1177 x=490   y=105   width=9     height=20    xoffset=0     yoffset=0     xadvance=8     page=0  chnl=15
char id=1178 x=343   y=42    width=11    height=20    xoffset=0     yoffset=0     xadvance=10    page=0  chnl=15
char id=1179 x=436   y=63    width=10    height=20    xoffset=0     yoffset=0     xadvance=8     page=0  chnl=15
char id=1180 x=220   y=84    width=10    height=20    xoffset=0     yoffset=0     xadvance=9     page=0  chnl=15
char id=1181 x=0     y=126   width=9     height=20    xoffset=0     yoffset=0     xadvance=8     page=0  chnl=15
char id=1182 x=355   y=42    width=11    height=20    xoffset=-1    yoffset=0     xadvance=10    page=0  chnl=15
char id=1183 x=20    y=126   width=9     height=20    xoffset=-1    yoffset=0     xadvance=8     page=0  chnl=15
char id=1184 x=183   y=21    width=13    height=20    xoffset=0     yoffset=0     xadvance=13    page=0  chnl=15
char id=1185 x=410   y=21    width=12    height=20    xoffset=0     yoffset=0     xadvance=11    page=0  chnl=15
char id=1186 x=371   y=21    width=12    height=20    xoffset=0     yoffset=0     xadvance=11    page=0  chnl=15
char id=1187 x=132   y=84    width=10    height=20    xoffset=0     yoffset=0     xadvance=9     page=0  chnl=15
char id=1188 x=228   y=0     width=15    height=20    xoffset=0     yoffset=0     xadvance=14    page=0  chnl=15
char id=1189 x=367   y=42    width=11    height=20    xoffset=0     yoffset=0     xadvance=11    page=0  chnl=15
char id=1190 x=145   y=0     width=16    height=20    xoffset=0     yoffset=0     xadvance=15    page=0  chnl=15
char id=1191 x=473   y=0     width=14    height=20    xoffset=0     yoffset=0     xadvance=13    page=0  chnl=15
char id=1192 x=379   y=42    width=11    height=20    xoffset=0     yoffset=0     xadvance=10    page=0  chnl=15
char id=1193 x=90    y=126   width=9     height=20    xoffset=0     yoffset=0     xadvance=9     page=0  chnl=15
char id=1194 x=100   y=126   width=9     height=20    xoffset=0     yoffset=0     xadvance=10    page=0  chnl=15
char id=1195 x=385   y=126   width=8     height=20    xoffset=0     yoffset=0     xadvance=8     page=0  chnl=15
char id=1196 x=110   y=84    width=10    height=20    xoffset=0     yoffset=0     xadvance=9     page=0  chnl=15
char id=1197 x=403   y=126   width=8     height=20    xoffset=0     yoffset=0     xadvance=8     page=0  chnl=15
char id=1198 x=391   y=42    width=11    height=20    xoffset=-1    yoffset=0     xadvance=9     page=0  chnl=15
char id=1199 x=110   y=126   width=9     height=20    xoffset=-1    yoffset=0     xadvance=8     page=0  chnl=15
char id=1200 x=33    y=84    width=10    height=20    xoffset=0     yoffset=0     xadvance=9     page=0  chnl=15
char id=1201 x=54    y=147   width=8     height=20    xoffset=0     yoffset=0     xadvance=8     page=0  chnl=15
char id=1202 x=403   y=42    width=11    height=20    xoffset=0     yoffset=0     xadvance=9     page=0  chnl=15
char id=1203 x=480   y=63    width=10    height=20    xoffset=-1    yoffset=0     xadvance=8     page=0  chnl=15
char id=1204 x=458   y=0     width=14    height=20    xoffset=0     yoffset=0     xadvance=14    page=0  chnl=15
char id=1205 x=415   y=42    width=11    height=20    xoffset=0     yoffset=0     xadvance=10    page=0  chnl=15
char id=1206 x=13    y=42    width=12    height=20    xoffset=0     yoffset=0     xadvance=10    page=0  chnl=15
char id=1207 x=370   y=63    width=10    height=20    xoffset=0     yoffset=0     xadvance=8     page=0  chnl=15
char id=1208 x=427   y=42    width=11    height=20    xoffset=0     yoffset=0     xadvance=10    page=0  chnl=15
char id=1209 x=130   y=126   width=9     height=20    xoffset=0     yoffset=0     xadvance=8     page=0  chnl=15
char id=1210 x=359   y=63    width=10    height=20    xoffset=0     yoffset=0     xadvance=10    page=0  chnl=15
char id=1211 x=140   y=126   width=9     height=20    xoffset=0     yoffset=0     xadvance=8     page=0  chnl=15
char id=1212 x=239   y=21    width=13    height=20    xoffset=0     yoffset=0     xadvance=13    page=0  chnl=15
char id=1213 x=439   y=42    width=11    height=20    xoffset=-1    yoffset=0     xadvance=9     page=0  chnl=15
char id=1214 x=225   y=21    width=13    height=20    xoffset=0     yoffset=0     xadvance=13    page=0  chnl=15
char id=1215 x=451   y=42    width=11    height=20    xoffset=-1    yoffset=0     xadvance=9     page=0  chnl=15
char id=1216 x=301   y=147   width=4     height=20    xoffset=0     yoffset=0     xadvance=4     page=0  chnl=15
char id=1217 x=443   y=0     width=14    height=20    xoffset=-1    yoffset=0     xadvance=12    page=0  chnl=15
char id=1218 x=358   y=21    width=12    height=20    xoffset=-1    yoffset=0     xadvance=11    page=0  chnl=15
char id=1219 x=463   y=42    width=11    height=20    xoffset=0     yoffset=0     xadvance=9     page=0  chnl=15
char id=1220 x=466   y=126   width=8     height=20    xoffset=0     yoffset=0     xadvance=8     page=0  chnl=15
char id=1221 x=319   y=21    width=12    height=20    xoffset=0     yoffset=0     xadvance=10    page=0  chnl=15
char id=1222 x=315   y=63    width=10    height=20    xoffset=0     yoffset=0     xadvance=8     page=0  chnl=15
char id=1223 x=475   y=42    width=11    height=20    xoffset=0     yoffset=0     xadvance=11    page=0  chnl=15
char id=1224 x=180   y=126   width=9     height=20    xoffset=0     yoffset=0     xadvance=9     page=0  chnl=15
char id=1225 x=293   y=21    width=12    height=20    xoffset=0     yoffset=0     xadvance=10    page=0  chnl=15
char id=1226 x=304   y=63    width=10    height=20    xoffset=0     yoffset=0     xadvance=8     page=0  chnl=15
char id=1227 x=487   y=42    width=11    height=20    xoffset=0     yoffset=0     xadvance=10    page=0  chnl=15
char id=1228 x=200   y=126   width=9     height=20    xoffset=0     yoffset=0     xadvance=8     page=0  chnl=15
char id=1229 x=428   y=0     width=14    height=20    xoffset=0     yoffset=0     xadvance=13    page=0  chnl=15
char id=1230 x=85    y=21    width=13    height=20    xoffset=0     yoffset=0     xadvance=11    page=0  chnl=15
char id=1231 x=316   y=147   width=4     height=20    xoffset=0     yoffset=0     xadvance=4     page=0  chnl=15
char id=1232 x=271   y=63    width=10    height=20    xoffset=0     yoffset=0     xadvance=9     page=0  chnl=15
char id=1233 x=220   y=126   width=9     height=20    xoffset=0     yoffset=0     xadvance=8     page=0  chnl=15
char id=1234 x=271   y=42    width=11    height=20    xoffset=-1    yoffset=0     xadvance=9     page=0  chnl=15
char id=1235 x=230   y=126   width=9     height=20    xoffset=0     yoffset=0     xadvance=8     page=0  chnl=15
char id=1236 x=162   y=0     width=16    height=20    xoffset=-1    yoffset=0     xadvance=15    page=0  chnl=15
char id=1237 x=368   y=0     width=14    height=20    xoffset=0     yoffset=0     xadvance=13    page=0  chnl=15
char id=1238 x=240   y=126   width=9     height=20    xoffset=0     yoffset=0     xadvance=8     page=0  chnl=15
char id=1239 x=250   y=126   width=9     height=20    xoffset=0     yoffset=0     xadvance=8     page=0  chnl=15
char id=1240 x=499   y=42    width=11    height=20    xoffset=0     yoffset=0     xadvance=10    page=0  chnl=15
char id=1241 x=260   y=126   width=9     height=20    xoffset=0     yoffset=0     xadvance=8     page=0  chnl=15
char id=1242 x=0     y=63    width=11    height=20    xoffset=0     yoffset=0     xadvance=10    page=0  chnl=15
char id=1243 x=280   y=126   width=9     height=20    xoffset=0     yoffset=0     xadvance=8     page=0  chnl=15
char id=1244 x=169   y=21    width=13    height=20    xoffset=0     yoffset=0     xadvance=12    page=0  chnl=15
char id=1245 x=384   y=21    width=12    height=20    xoffset=-1    yoffset=0     xadvance=11    page=0  chnl=15
char id=1246 x=216   y=63    width=10    height=20    xoffset=0     yoffset=0     xadvance=10    page=0  chnl=15
char id=1247 x=367   y=126   width=8     height=20    xoffset=1     yoffset=0     xadvance=8     page=0  chnl=15
char id=1248 x=290   y=126   width=9     height=20    xoffset=0     yoffset=0     xadvance=9     page=0  chnl=15
char id=1249 x=300   y=126   width=9     height=20    xoffset=0     yoffset=0     xadvance=9     page=0  chnl=15
char id=1250 x=24    y=63    width=11    height=20    xoffset=0     yoffset=0     xadvance=11    page=0  chnl=15
char id=1251 x=310   y=126   width=9     height=20    xoffset=0     yoffset=0     xadvance=9     page=0  chnl=15
char id=1252 x=36    y=63    width=11    height=20    xoffset=0     yoffset=0     xadvance=11    page=0  chnl=15
char id=1253 x=330   y=126   width=9     height=20    xoffset=0     yoffset=0     xadvance=9     page=0  chnl=15
char id=1254 x=60    y=63    width=11    height=20    xoffset=0     yoffset=0     xadvance=10    page=0  chnl=15
char id=1255 x=263   y=84    width=9     height=20    xoffset=0     yoffset=0     xadvance=8     page=0  chnl=15
char id=1256 x=72    y=63    width=11    height=20    xoffset=0     yoffset=0     xadvance=10    page=0  chnl=15
char id=1257 x=273   y=84    width=9     height=20    xoffset=0     yoffset=0     xadvance=9     page=0  chnl=15
char id=1258 x=84    y=63    width=11    height=20    xoffset=0     yoffset=0     xadvance=10    page=0  chnl=15
char id=1259 x=293   y=84    width=9     height=20    xoffset=0     yoffset=0     xadvance=9     page=0  chnl=15
char id=1260 x=120   y=63    width=11    height=20    xoffset=0     yoffset=0     xadvance=10    page=0  chnl=15
char id=1261 x=303   y=84    width=9     height=20    xoffset=0     yoffset=0     xadvance=8     page=0  chnl=15
char id=1262 x=242   y=84    width=10    height=20    xoffset=0     yoffset=0     xadvance=9     page=0  chnl=15
char id=1263 x=323   y=84    width=9     height=20    xoffset=0     yoffset=0     xadvance=8     page=0  chnl=15
char id=1264 x=132   y=63    width=11    height=20    xoffset=-1    yoffset=0     xadvance=9     page=0  chnl=15
char id=1265 x=55    y=84    width=10    height=20    xoffset=-1    yoffset=0     xadvance=8     page=0  chnl=15
char id=1266 x=44    y=84    width=10    height=20    xoffset=0     yoffset=0     xadvance=9     page=0  chnl=15
char id=1267 x=333   y=84    width=9     height=20    xoffset=0     yoffset=0     xadvance=8     page=0  chnl=15
char id=1268 x=144   y=63    width=11    height=20    xoffset=0     yoffset=0     xadvance=10    page=0  chnl=15
char id=1269 x=353   y=84    width=9     height=20    xoffset=0     yoffset=0     xadvance=8     page=0  chnl=15
char id=1270 x=363   y=84    width=9     height=20    xoffset=0     yoffset=0     xadvance=8     page=0  chnl=15
char id=1271 x=119   y=147   width=7     height=20    xoffset=0     yoffset=0     xadvance=6     page=0  chnl=15
char id=1272 x=113   y=21    width=13    height=20    xoffset=0     yoffset=0     xadvance=13    page=0  chnl=15
char id=1273 x=39    y=42    width=12    height=20    xoffset=0     yoffset=0     xadvance=12    page=0  chnl=15
char id=1274 x=180   y=63    width=11    height=20    xoffset=-1    yoffset=0     xadvance=9     page=0  chnl=15
char id=1275 x=393   y=84    width=9     height=20    xoffset=-1    yoffset=0     xadvance=6     page=0  chnl=15
char id=1276 x=65    y=42    width=12    height=20    xoffset=-1    yoffset=0     xadvance=9     page=0  chnl=15
char id=1277 x=491   y=63    width=10    height=20    xoffset=0     yoffset=0     xadvance=8     page=0  chnl=15
char id=1278 x=414   y=63    width=10    height=20    xoffset=0     yoffset=0     xadvance=9     page=0  chnl=15
char id=1279 x=403   y=84    width=9     height=20    xoffset=-1    yoffset=0     xadvance=8     page=0  chnl=15
kernings count=855
kerning first=65  second=1185 amount=-1  
kerning first=70  second=44  amount=-2  
kerning first=70  second=46  amount=-2  
kerning first=70  second=58  amount=-2  
kerning first=75  second=1090 amount=-1  
kerning first=75  second=1121 amount=-1  
kerning first=75  second=1185 amount=-1  
kerning first=76  second=119 amount=-1  
kerning first=80  second=1044 amount=-1  
kerning first=84  second=114 amount=-1  
kerning first=84  second=171 amount=-2  
kerning first=84  second=187 amount=-2  
kerning first=84  second=1044 amount=-1  
kerning first=84  second=1074 amount=-1  
kerning first=84  second=1076 amount=-1  
kerning first=84  second=1079 amount=-1  
kerning first=84  second=1090 amount=-1  
kerning first=84  second=1099 amount=-1  
kerning first=84  second=1101 amount=-1  
kerning first=84  second=1103 amount=-1  
kerning first=84  second=1119 amount=-1  
kerning first=84  second=1121 amount=-1  
kerning first=84  second=1147 amount=-1  
kerning first=84  second=1167 amount=-1  
kerning first=84  second=1169 amount=-1  
kerning first=84  second=1181 amount=-1  
kerning first=84  second=1185 amount=-1  
kerning first=84  second=1191 amount=-1  
kerning first=89  second=171 amount=-1  
kerning first=1027 second=114 amount=-1  
kerning first=1027 second=119 amount=-1  
kerning first=1027 second=171 amount=-4  
kerning first=1027 second=187 amount=-3  
kerning first=1027 second=1044 amount=-1  
kerning first=1027 second=1074 amount=-1  
kerning first=1027 second=1076 amount=-2  
kerning first=1027 second=1079 amount=-2  
kerning first=1027 second=1090 amount=-1  
kerning first=1027 second=1099 amount=-2  
kerning first=1027 second=1101 amount=-2  
kerning first=1027 second=1103 amount=-2  
kerning first=1027 second=1119 amount=-2  
kerning first=1027 second=1121 amount=-2  
kerning first=1027 second=1147 amount=-1  
kerning first=1027 second=1151 amount=-1  
kerning first=1027 second=1167 amount=-2  
kerning first=1027 second=1169 amount=-1  
kerning first=1027 second=1181 amount=-2  
kerning first=1027 second=1185 amount=-1  
kerning first=1027 second=1191 amount=-1  
kerning first=1036 second=1090 amount=-1  
kerning first=1036 second=1121 amount=-1  
kerning first=1036 second=1185 amount=-1  
kerning first=1038 second=1044 amount=-1  
kerning first=1038 second=1076 amount=-1  
kerning first=1040 second=1185 amount=-1  
kerning first=1043 second=114 amount=-1  
kerning first=1043 second=119 amount=-1  
kerning first=1043 second=171 amount=-4  
kerning first=1043 second=187 amount=-3  
kerning first=1043 second=1044 amount=-1  
kerning first=1043 second=1074 amount=-1  
kerning first=1043 second=1076 amount=-2  
kerning first=1043 second=1079 amount=-2  
kerning first=1043 second=1090 amount=-1  
kerning first=1043 second=1099 amount=-2  
kerning first=1043 second=1101 amount=-2  
kerning first=1043 second=1103 amount=-2  
kerning first=1043 second=1119 amount=-2  
kerning first=1043 second=1121 amount=-2  
kerning first=1043 second=1147 amount=-1  
kerning first=1043 second=1151 amount=-1  
kerning first=1043 second=1167 amount=-2  
kerning first=1043 second=1169 amount=-1  
kerning first=1043 second=1181 amount=-2  
kerning first=1043 second=1185 amount=-1  
kerning first=1043 second=1191 amount=-1  
kerning first=1050 second=1090 amount=-1  
kerning first=1050 second=1121 amount=-1  
kerning first=1050 second=1185 amount=-1  
kerning first=1056 second=1044 amount=-1  
kerning first=1058 second=114 amount=-1  
kerning first=1058 second=171 amount=-2  
kerning first=1058 second=187 amount=-2  
kerning first=1058 second=1044 amount=-1  
kerning first=1058 second=1074 amount=-1  
kerning first=1058 second=1076 amount=-1  
kerning first=1058 second=1079 amount=-1  
kerning first=1058 second=1090 amount=-1  
kerning first=1058 second=1099 amount=-1  
kerning first=1058 second=1101 amount=-1  
kerning first=1058 second=1103 amount=-1  
kerning first=1058 second=1119 amount=-1  
kerning first=1058 second=1121 amount=-1  
kerning first=1058 second=1147 amount=-1  
kerning first=1058 second=1167 amount=-1  
kerning first=1058 second=1169 amount=-1  
kerning first=1058 second=1181 amount=-1  
kerning first=1058 second=1185 amount=-1  
kerning first=1058 second=1191 amount=-1  
kerning first=1059 second=1044 amount=-1  
kerning first=1059 second=1076 amount=-1  
kerning first=1098 second=1090 amount=-1  
kerning first=1098 second=1185 amount=-1  
kerning first=1100 second=1090 amount=-1  
kerning first=1100 second=1185 amount=-1  
kerning first=1113 second=1090 amount=-1  
kerning first=1113 second=1185 amount=-1  
kerning first=1114 second=1090 amount=-1  
kerning first=1114 second=1185 amount=-1  
kerning first=1123 second=1090 amount=-1  
kerning first=1123 second=1185 amount=-1  
kerning first=1126 second=1185 amount=-1  
kerning first=1168 second=114 amount=-1  
kerning first=1168 second=119 amount=-1  
kerning first=1168 second=171 amount=-4  
kerning first=1168 second=187 amount=-3  
kerning first=1168 second=1044 amount=-1  
kerning first=1168 second=1074 amount=-1  
kerning first=1168 second=1076 amount=-2  
kerning first=1168 second=1079 amount=-2  
kerning first=1168 second=1090 amount=-1  
kerning first=1168 second=1099 amount=-2  
kerning first=1168 second=1101 amount=-2  
kerning first=1168 second=1103 amount=-2  
kerning first=1168 second=1119 amount=-2  
kerning first=1168 second=1121 amount=-2  
kerning first=1168 second=1147 amount=-1  
kerning first=1168 second=1151 amount=-1  
kerning first=1168 second=1167 amount=-2  
kerning first=1168 second=1169 amount=-1  
kerning first=1168 second=1181 amount=-2  
kerning first=1168 second=1185 amount=-1  
kerning first=1168 second=1191 amount=-1  
kerning first=1170 second=114 amount=-1  
kerning first=1170 second=119 amount=-1  
kerning first=1170 second=171 amount=-4  
kerning first=1170 second=187 amount=-3  
kerning first=1170 second=1044 amount=-1  
kerning first=1170 second=1074 amount=-1  
kerning first=1170 second=1076 amount=-2  
kerning first=1170 second=1079 amount=-2  
kerning first=1170 second=1090 amount=-1  
kerning first=1170 second=1099 amount=-2  
kerning first=1170 second=1101 amount=-2  
kerning first=1170 second=1103 amount=-2  
kerning first=1170 second=1119 amount=-2  
kerning first=1170 second=1121 amount=-2  
kerning first=1170 second=1147 amount=-1  
kerning first=1170 second=1151 amount=-1  
kerning first=1170 second=1167 amount=-2  
kerning first=1170 second=1169 amount=-1  
kerning first=1170 second=1181 amount=-2  
kerning first=1170 second=1185 amount=-1  
kerning first=1170 second=1191 amount=-1  
kerning first=1178 second=1090 amount=-1  
kerning first=1178 second=1121 amount=-1  
kerning first=1178 second=1185 amount=-1  
kerning first=1180 second=1090 amount=-1  
kerning first=1180 second=1121 amount=-1  
kerning first=1180 second=1185 amount=-1  
kerning first=1182 second=1090 amount=-1  
kerning first=1182 second=1121 amount=-1  
kerning first=1182 second=1185 amount=-1  
kerning first=1184 second=1090 amount=-1  
kerning first=1184 second=1121 amount=-1  
kerning first=1184 second=1185 amount=-1  
kerning first=70  second=44  amount=-2  
kerning first=70  second=44  amount=-2  
kerning first=70  second=44  amount=-2  
kerning first=70  second=44  amount=-2  
kerning first=70  second=44  amount=-2  
kerning first=70  second=46  amount=-2  
kerning first=70  second=46  amount=-2  
kerning first=70  second=46  amount=-2  
kerning first=70  second=46  amount=-2  
kerning first=70  second=46  amount=-2  
kerning first=70  second=58  amount=-2  
kerning first=70  second=58  amount=-2  
kerning first=70  second=58  amount=-2  
kerning first=70  second=58  amount=-2  
kerning first=70  second=58  amount=-2  
kerning first=82  second=84  amount=-1  
kerning first=82  second=1026 amount=-1  
kerning first=82  second=1035 amount=-1  
kerning first=82  second=1058 amount=-1  
kerning first=82  second=1184 amount=-1  
kerning first=119 second=44  amount=-1  
kerning first=119 second=46  amount=-1  
kerning first=119 second=58  amount=-1  
kerning first=34  second=34  amount=-1  
kerning first=34  second=39  amount=-1  
kerning first=34  second=65  amount=-1  
kerning first=34  second=1040 amount=-1  
kerning first=34  second=1126 amount=-1  
kerning first=39  second=34  amount=-1  
kerning first=39  second=39  amount=-1  
kerning first=39  second=65  amount=-1  
kerning first=39  second=1040 amount=-1  
kerning first=39  second=1126 amount=-1  
kerning first=65  second=1095 amount=-1  
kerning first=65  second=34  amount=-1  
kerning first=65  second=39  amount=-1  
kerning first=65  second=84  amount=-1  
kerning first=65  second=1026 amount=-1  
kerning first=65  second=1035 amount=-1  
kerning first=65  second=1058 amount=-1  
kerning first=65  second=1184 amount=-1  
kerning first=65  second=86  amount=-1  
kerning first=65  second=1140 amount=-1  
kerning first=65  second=1142 amount=-1  
kerning first=65  second=89  amount=-1  
kerning first=68  second=44  amount=-1  
kerning first=68  second=46  amount=-1  
kerning first=68  second=58  amount=-1  
kerning first=75  second=1095 amount=-1  
kerning first=76  second=118 amount=-1  
kerning first=76  second=121 amount=-1  
kerning first=76  second=1091 amount=-1  
kerning first=76  second=1118 amount=-1  
kerning first=76  second=1141 amount=-1  
kerning first=76  second=1143 amount=-1  
kerning first=76  second=34  amount=-1  
kerning first=76  second=39  amount=-1  
kerning first=76  second=87  amount=-1  
kerning first=76  second=84  amount=-2  
kerning first=76  second=1026 amount=-2  
kerning first=76  second=1035 amount=-2  
kerning first=76  second=1058 amount=-2  
kerning first=76  second=1184 amount=-2  
kerning first=76  second=86  amount=-1  
kerning first=76  second=1140 amount=-1  
kerning first=76  second=1142 amount=-1  
kerning first=76  second=89  amount=-2  
kerning first=79  second=44  amount=-1  
kerning first=79  second=46  amount=-1  
kerning first=79  second=58  amount=-1  
kerning first=80  second=65  amount=-1  
kerning first=80  second=1040 amount=-1  
kerning first=80  second=1126 amount=-1  
kerning first=80  second=44  amount=-2  
kerning first=80  second=46  amount=-2  
kerning first=80  second=58  amount=-2  
kerning first=84  second=118 amount=-1  
kerning first=84  second=121 amount=-1  
kerning first=84  second=1091 amount=-1  
kerning first=84  second=1118 amount=-1  
kerning first=84  second=1141 amount=-1  
kerning first=84  second=1143 amount=-1  
kerning first=84  second=1095 amount=-1  
kerning first=84  second=1083 amount=-1  
kerning first=84  second=1113 amount=-1  
kerning first=84  second=111 amount=-1  
kerning first=84  second=1086 amount=-1  
kerning first=84  second=1139 amount=-1  
kerning first=84  second=117 amount=-1  
kerning first=84  second=65  amount=-1  
kerning first=84  second=1040 amount=-1  
kerning first=84  second=1126 amount=-1  
kerning first=84  second=44  amount=-2  
kerning first=84  second=46  amount=-2  
kerning first=84  second=58  amount=-2  
kerning first=84  second=99  amount=-1  
kerning first=84  second=100 amount=-1  
kerning first=84  second=101 amount=-1  
kerning first=84  second=103 amount=-1  
kerning first=84  second=113 amount=-1  
kerning first=84  second=1077 amount=-1  
kerning first=84  second=1089 amount=-1  
kerning first=84  second=1092 amount=-1  
kerning first=84  second=1104 amount=-1  
kerning first=84  second=1105 amount=-1  
kerning first=84  second=1108 amount=-1  
kerning first=84  second=1145 amount=-1  
kerning first=84  second=1149 amount=-1  
kerning first=84  second=1153 amount=-1  
kerning first=84  second=1193 amount=-1  
kerning first=84  second=120 amount=-1  
kerning first=84  second=1078 amount=-1  
kerning first=84  second=1093 amount=-1  
kerning first=84  second=1175 amount=-1  
kerning first=84  second=45  amount=-2  
kerning first=84  second=109 amount=-1  
kerning first=84  second=110 amount=-1  
kerning first=84  second=112 amount=-1  
kerning first=84  second=1075 amount=-1  
kerning first=84  second=1080 amount=-1  
kerning first=84  second=1081 amount=-1  
kerning first=84  second=1082 amount=-1  
kerning first=84  second=1084 amount=-1  
kerning first=84  second=1085 amount=-1  
kerning first=84  second=1087 amount=-1  
kerning first=84  second=1088 amount=-1  
kerning first=84  second=1094 amount=-1  
kerning first=84  second=1096 amount=-1  
kerning first=84  second=1097 amount=-1  
kerning first=84  second=1100 amount=-1  
kerning first=84  second=1102 amount=-1  
kerning first=84  second=1107 amount=-1  
kerning first=84  second=1114 amount=-1  
kerning first=84  second=1116 amount=-1  
kerning first=84  second=1117 amount=-1  
kerning first=84  second=1163 amount=-1  
kerning first=84  second=1179 amount=-1  
kerning first=84  second=1187 amount=-1  
kerning first=84  second=1189 amount=-1  
kerning first=84  second=97  amount=-1  
kerning first=84  second=1072 amount=-1  
kerning first=84  second=115 amount=-1  
kerning first=84  second=1109 amount=-1  
kerning first=86  second=65  amount=-1  
kerning first=86  second=1040 amount=-1  
kerning first=86  second=1126 amount=-1  
kerning first=86  second=44  amount=-2  
kerning first=86  second=46  amount=-2  
kerning first=86  second=58  amount=-2  
kerning first=87  second=44  amount=-1  
kerning first=87  second=46  amount=-1  
kerning first=87  second=58  amount=-1  
kerning first=89  second=85  amount=-1  
kerning first=89  second=65  amount=-1  
kerning first=89  second=1040 amount=-1  
kerning first=89  second=1126 amount=-1  
kerning first=89  second=44  amount=-2  
kerning first=89  second=46  amount=-2  
kerning first=89  second=58  amount=-2  
kerning first=89  second=97  amount=-1  
kerning first=89  second=1072 amount=-1  
kerning first=89  second=74  amount=-1  
kerning first=89  second=1032 amount=-1  
kerning first=114 second=44  amount=-1  
kerning first=114 second=46  amount=-1  
kerning first=114 second=58  amount=-1  
kerning first=118 second=44  amount=-1  
kerning first=118 second=46  amount=-1  
kerning first=118 second=58  amount=-1  
kerning first=121 second=44  amount=-1  
kerning first=121 second=46  amount=-1  
kerning first=121 second=58  amount=-1  
kerning first=1027 second=1033 amount=-1  
kerning first=1027 second=1051 amount=-1  
kerning first=1027 second=118 amount=-1  
kerning first=1027 second=121 amount=-1  
kerning first=1027 second=1091 amount=-1  
kerning first=1027 second=1118 amount=-1  
kerning first=1027 second=1141 amount=-1  
kerning first=1027 second=1143 amount=-1  
kerning first=1027 second=1095 amount=-2  
kerning first=1027 second=1083 amount=-2  
kerning first=1027 second=1113 amount=-2  
kerning first=1027 second=111 amount=-1  
kerning first=1027 second=1086 amount=-1  
kerning first=1027 second=1139 amount=-1  
kerning first=1027 second=117 amount=-1  
kerning first=1027 second=122 amount=-1  
kerning first=1027 second=65  amount=-1  
kerning first=1027 second=1040 amount=-1  
kerning first=1027 second=1126 amount=-1  
kerning first=1027 second=44  amount=-3  
kerning first=1027 second=46  amount=-3  
kerning first=1027 second=58  amount=-3  
kerning first=1027 second=99  amount=-1  
kerning first=1027 second=100 amount=-1  
kerning first=1027 second=101 amount=-1  
kerning first=1027 second=103 amount=-1  
kerning first=1027 second=113 amount=-1  
kerning first=1027 second=1077 amount=-1  
kerning first=1027 second=1089 amount=-1  
kerning first=1027 second=1092 amount=-1  
kerning first=1027 second=1104 amount=-1  
kerning first=1027 second=1105 amount=-1  
kerning first=1027 second=1108 amount=-1  
kerning first=1027 second=1145 amount=-1  
kerning first=1027 second=1149 amount=-1  
kerning first=1027 second=1153 amount=-1  
kerning first=1027 second=1193 amount=-1  
kerning first=1027 second=120 amount=-1  
kerning first=1027 second=1078 amount=-1  
kerning first=1027 second=1093 amount=-1  
kerning first=1027 second=1175 amount=-1  
kerning first=1027 second=45  amount=-3  
kerning first=1027 second=109 amount=-1  
kerning first=1027 second=110 amount=-1  
kerning first=1027 second=112 amount=-1  
kerning first=1027 second=1075 amount=-1  
kerning first=1027 second=1080 amount=-1  
kerning first=1027 second=1081 amount=-1  
kerning first=1027 second=1082 amount=-1  
kerning first=1027 second=1084 amount=-1  
kerning first=1027 second=1085 amount=-1  
kerning first=1027 second=1087 amount=-1  
kerning first=1027 second=1088 amount=-1  
kerning first=1027 second=1094 amount=-1  
kerning first=1027 second=1096 amount=-1  
kerning first=1027 second=1097 amount=-1  
kerning first=1027 second=1100 amount=-1  
kerning first=1027 second=1102 amount=-1  
kerning first=1027 second=1107 amount=-1  
kerning first=1027 second=1114 amount=-1  
kerning first=1027 second=1116 amount=-1  
kerning first=1027 second=1117 amount=-1  
kerning first=1027 second=1163 amount=-1  
kerning first=1027 second=1179 amount=-1  
kerning first=1027 second=1187 amount=-1  
kerning first=1027 second=1189 amount=-1  
kerning first=1027 second=97  amount=-2  
kerning first=1027 second=1072 amount=-2  
kerning first=1027 second=115 amount=-2  
kerning first=1027 second=1109 amount=-2  
kerning first=1033 second=84  amount=-2  
kerning first=1033 second=1026 amount=-2  
kerning first=1033 second=1035 amount=-2  
kerning first=1033 second=1058 amount=-2  
kerning first=1033 second=1184 amount=-2  
kerning first=1033 second=89  amount=-1  
kerning first=1034 second=84  amount=-2  
kerning first=1034 second=1026 amount=-2  
kerning first=1034 second=1035 amount=-2  
kerning first=1034 second=1058 amount=-2  
kerning first=1034 second=1184 amount=-2  
kerning first=1034 second=89  amount=-1  
kerning first=1036 second=1095 amount=-1  
kerning first=1038 second=65  amount=-1  
kerning first=1038 second=1040 amount=-1  
kerning first=1038 second=1126 amount=-1  
kerning first=1038 second=44  amount=-3  
kerning first=1038 second=46  amount=-3  
kerning first=1038 second=58  amount=-3  
kerning first=1038 second=45  amount=-1  
kerning first=1038 second=109 amount=-1  
kerning first=1038 second=110 amount=-1  
kerning first=1038 second=112 amount=-1  
kerning first=1038 second=1075 amount=-1  
kerning first=1038 second=1080 amount=-1  
kerning first=1038 second=1081 amount=-1  
kerning first=1038 second=1082 amount=-1  
kerning first=1038 second=1084 amount=-1  
kerning first=1038 second=1085 amount=-1  
kerning first=1038 second=1087 amount=-1  
kerning first=1038 second=1088 amount=-1  
kerning first=1038 second=1094 amount=-1  
kerning first=1038 second=1096 amount=-1  
kerning first=1038 second=1097 amount=-1  
kerning first=1038 second=1100 amount=-1  
kerning first=1038 second=1102 amount=-1  
kerning first=1038 second=1107 amount=-1  
kerning first=1038 second=1114 amount=-1  
kerning first=1038 second=1116 amount=-1  
kerning first=1038 second=1117 amount=-1  
kerning first=1038 second=1163 amount=-1  
kerning first=1038 second=1179 amount=-1  
kerning first=1038 second=1187 amount=-1  
kerning first=1038 second=1189 amount=-1  
kerning first=1038 second=97  amount=-1  
kerning first=1038 second=1072 amount=-1  
kerning first=1040 second=1095 amount=-1  
kerning first=1040 second=34  amount=-1  
kerning first=1040 second=39  amount=-1  
kerning first=1040 second=84  amount=-1  
kerning first=1040 second=1026 amount=-1  
kerning first=1040 second=1035 amount=-1  
kerning first=1040 second=1058 amount=-1  
kerning first=1040 second=1184 amount=-1  
kerning first=1040 second=86  amount=-1  
kerning first=1040 second=1140 amount=-1  
kerning first=1040 second=1142 amount=-1  
kerning first=1040 second=89  amount=-1  
kerning first=1043 second=1033 amount=-1  
kerning first=1043 second=1051 amount=-1  
kerning first=1043 second=118 amount=-1  
kerning first=1043 second=121 amount=-1  
kerning first=1043 second=1091 amount=-1  
kerning first=1043 second=1118 amount=-1  
kerning first=1043 second=1141 amount=-1  
kerning first=1043 second=1143 amount=-1  
kerning first=1043 second=1095 amount=-2  
kerning first=1043 second=1083 amount=-2  
kerning first=1043 second=1113 amount=-2  
kerning first=1043 second=111 amount=-1  
kerning first=1043 second=1086 amount=-1  
kerning first=1043 second=1139 amount=-1  
kerning first=1043 second=117 amount=-1  
kerning first=1043 second=122 amount=-1  
kerning first=1043 second=65  amount=-1  
kerning first=1043 second=1040 amount=-1  
kerning first=1043 second=1126 amount=-1  
kerning first=1043 second=44  amount=-3  
kerning first=1043 second=46  amount=-3  
kerning first=1043 second=58  amount=-3  
kerning first=1043 second=99  amount=-1  
kerning first=1043 second=100 amount=-1  
kerning first=1043 second=101 amount=-1  
kerning first=1043 second=103 amount=-1  
kerning first=1043 second=113 amount=-1  
kerning first=1043 second=1077 amount=-1  
kerning first=1043 second=1089 amount=-1  
kerning first=1043 second=1092 amount=-1  
kerning first=1043 second=1104 amount=-1  
kerning first=1043 second=1105 amount=-1  
kerning first=1043 second=1108 amount=-1  
kerning first=1043 second=1145 amount=-1  
kerning first=1043 second=1149 amount=-1  
kerning first=1043 second=1153 amount=-1  
kerning first=1043 second=1193 amount=-1  
kerning first=1043 second=120 amount=-1  
kerning first=1043 second=1078 amount=-1  
kerning first=1043 second=1093 amount=-1  
kerning first=1043 second=1175 amount=-1  
kerning first=1043 second=45  amount=-3  
kerning first=1043 second=109 amount=-1  
kerning first=1043 second=110 amount=-1  
kerning first=1043 second=112 amount=-1  
kerning first=1043 second=1075 amount=-1  
kerning first=1043 second=1080 amount=-1  
kerning first=1043 second=1081 amount=-1  
kerning first=1043 second=1082 amount=-1  
kerning first=1043 second=1084 amount=-1  
kerning first=1043 second=1085 amount=-1  
kerning first=1043 second=1087 amount=-1  
kerning first=1043 second=1088 amount=-1  
kerning first=1043 second=1094 amount=-1  
kerning first=1043 second=1096 amount=-1  
kerning first=1043 second=1097 amount=-1  
kerning first=1043 second=1100 amount=-1  
kerning first=1043 second=1102 amount=-1  
kerning first=1043 second=1107 amount=-1  
kerning first=1043 second=1114 amount=-1  
kerning first=1043 second=1116 amount=-1  
kerning first=1043 second=1117 amount=-1  
kerning first=1043 second=1163 amount=-1  
kerning first=1043 second=1179 amount=-1  
kerning first=1043 second=1187 amount=-1  
kerning first=1043 second=1189 amount=-1  
kerning first=1043 second=97  amount=-2  
kerning first=1043 second=1072 amount=-2  
kerning first=1043 second=115 amount=-2  
kerning first=1043 second=1109 amount=-2  
kerning first=1050 second=1095 amount=-1  
kerning first=1054 second=44  amount=-1  
kerning first=1054 second=46  amount=-1  
kerning first=1054 second=58  amount=-1  
kerning first=1056 second=65  amount=-1  
kerning first=1056 second=1040 amount=-1  
kerning first=1056 second=1126 amount=-1  
kerning first=1056 second=44  amount=-2  
kerning first=1056 second=46  amount=-2  
kerning first=1056 second=58  amount=-2  
kerning first=1058 second=118 amount=-1  
kerning first=1058 second=121 amount=-1  
kerning first=1058 second=1091 amount=-1  
kerning first=1058 second=1118 amount=-1  
kerning first=1058 second=1141 amount=-1  
kerning first=1058 second=1143 amount=-1  
kerning first=1058 second=1095 amount=-1  
kerning first=1058 second=1083 amount=-1  
kerning first=1058 second=1113 amount=-1  
kerning first=1058 second=111 amount=-1  
kerning first=1058 second=1086 amount=-1  
kerning first=1058 second=1139 amount=-1  
kerning first=1058 second=117 amount=-1  
kerning first=1058 second=65  amount=-1  
kerning first=1058 second=1040 amount=-1  
kerning first=1058 second=1126 amount=-1  
kerning first=1058 second=44  amount=-2  
kerning first=1058 second=46  amount=-2  
kerning first=1058 second=58  amount=-2  
kerning first=1058 second=99  amount=-1  
kerning first=1058 second=100 amount=-1  
kerning first=1058 second=101 amount=-1  
kerning first=1058 second=103 amount=-1  
kerning first=1058 second=113 amount=-1  
kerning first=1058 second=1077 amount=-1  
kerning first=1058 second=1089 amount=-1  
kerning first=1058 second=1092 amount=-1  
kerning first=1058 second=1104 amount=-1  
kerning first=1058 second=1105 amount=-1  
kerning first=1058 second=1108 amount=-1  
kerning first=1058 second=1145 amount=-1  
kerning first=1058 second=1149 amount=-1  
kerning first=1058 second=1153 amount=-1  
kerning first=1058 second=1193 amount=-1  
kerning first=1058 second=120 amount=-1  
kerning first=1058 second=1078 amount=-1  
kerning first=1058 second=1093 amount=-1  
kerning first=1058 second=1175 amount=-1  
kerning first=1058 second=45  amount=-2  
kerning first=1058 second=109 amount=-1  
kerning first=1058 second=110 amount=-1  
kerning first=1058 second=112 amount=-1  
kerning first=1058 second=1075 amount=-1  
kerning first=1058 second=1080 amount=-1  
kerning first=1058 second=1081 amount=-1  
kerning first=1058 second=1082 amount=-1  
kerning first=1058 second=1084 amount=-1  
kerning first=1058 second=1085 amount=-1  
kerning first=1058 second=1087 amount=-1  
kerning first=1058 second=1088 amount=-1  
kerning first=1058 second=1094 amount=-1  
kerning first=1058 second=1096 amount=-1  
kerning first=1058 second=1097 amount=-1  
kerning first=1058 second=1100 amount=-1  
kerning first=1058 second=1102 amount=-1  
kerning first=1058 second=1107 amount=-1  
kerning first=1058 second=1114 amount=-1  
kerning first=1058 second=1116 amount=-1  
kerning first=1058 second=1117 amount=-1  
kerning first=1058 second=1163 amount=-1  
kerning first=1058 second=1179 amount=-1  
kerning first=1058 second=1187 amount=-1  
kerning first=1058 second=1189 amount=-1  
kerning first=1058 second=97  amount=-1  
kerning first=1058 second=1072 amount=-1  
kerning first=1058 second=115 amount=-1  
kerning first=1058 second=1109 amount=-1  
kerning first=1059 second=65  amount=-1  
kerning first=1059 second=1040 amount=-1  
kerning first=1059 second=1126 amount=-1  
kerning first=1059 second=44  amount=-3  
kerning first=1059 second=46  amount=-3  
kerning first=1059 second=58  amount=-3  
kerning first=1059 second=45  amount=-1  
kerning first=1059 second=109 amount=-1  
kerning first=1059 second=110 amount=-1  
kerning first=1059 second=112 amount=-1  
kerning first=1059 second=1075 amount=-1  
kerning first=1059 second=1080 amount=-1  
kerning first=1059 second=1081 amount=-1  
kerning first=1059 second=1082 amount=-1  
kerning first=1059 second=1084 amount=-1  
kerning first=1059 second=1085 amount=-1  
kerning first=1059 second=1087 amount=-1  
kerning first=1059 second=1088 amount=-1  
kerning first=1059 second=1094 amount=-1  
kerning first=1059 second=1096 amount=-1  
kerning first=1059 second=1097 amount=-1  
kerning first=1059 second=1100 amount=-1  
kerning first=1059 second=1102 amount=-1  
kerning first=1059 second=1107 amount=-1  
kerning first=1059 second=1114 amount=-1  
kerning first=1059 second=1116 amount=-1  
kerning first=1059 second=1117 amount=-1  
kerning first=1059 second=1163 amount=-1  
kerning first=1059 second=1179 amount=-1  
kerning first=1059 second=1187 amount=-1  
kerning first=1059 second=1189 amount=-1  
kerning first=1059 second=97  amount=-1  
kerning first=1059 second=1072 amount=-1  
kerning first=1066 second=84  amount=-2  
kerning first=1066 second=1026 amount=-2  
kerning first=1066 second=1035 amount=-2  
kerning first=1066 second=1058 amount=-2  
kerning first=1066 second=1184 amount=-2  
kerning first=1066 second=89  amount=-1  
kerning first=1068 second=84  amount=-2  
kerning first=1068 second=1026 amount=-2  
kerning first=1068 second=1035 amount=-2  
kerning first=1068 second=1058 amount=-2  
kerning first=1068 second=1184 amount=-2  
kerning first=1068 second=89  amount=-1  
kerning first=1091 second=44  amount=-1  
kerning first=1091 second=46  amount=-1  
kerning first=1091 second=58  amount=-1  
kerning first=1098 second=34  amount=-1  
kerning first=1098 second=39  amount=-1  
kerning first=1100 second=34  amount=-1  
kerning first=1100 second=39  amount=-1  
kerning first=1113 second=34  amount=-1  
kerning first=1113 second=39  amount=-1  
kerning first=1114 second=34  amount=-1  
kerning first=1114 second=39  amount=-1  
kerning first=1118 second=44  amount=-1  
kerning first=1118 second=46  amount=-1  
kerning first=1118 second=58  amount=-1  
kerning first=1122 second=84  amount=-2  
kerning first=1122 second=1026 amount=-2  
kerning first=1122 second=1035 amount=-2  
kerning first=1122 second=1058 amount=-2  
kerning first=1122 second=1184 amount=-2  
kerning first=1122 second=89  amount=-1  
kerning first=1123 second=34  amount=-1  
kerning first=1123 second=39  amount=-1  
kerning first=1126 second=1095 amount=-1  
kerning first=1126 second=34  amount=-1  
kerning first=1126 second=39  amount=-1  
kerning first=1126 second=84  amount=-1  
kerning first=1126 second=1026 amount=-1  
kerning first=1126 second=1035 amount=-1  
kerning first=1126 second=1058 amount=-1  
kerning first=1126 second=1184 amount=-1  
kerning first=1126 second=86  amount=-1  
kerning first=1126 second=1140 amount=-1  
kerning first=1126 second=1142 amount=-1  
kerning first=1126 second=89  amount=-1  
kerning first=1140 second=65  amount=-1  
kerning first=1140 second=1040 amount=-1  
kerning first=1140 second=1126 amount=-1  
kerning first=1140 second=44  amount=-2  
kerning first=1140 second=46  amount=-2  
kerning first=1140 second=58  amount=-2  
kerning first=1141 second=44  amount=-1  
kerning first=1141 second=46  amount=-1  
kerning first=1141 second=58  amount=-1  
kerning first=1142 second=65  amount=-1  
kerning first=1142 second=1040 amount=-1  
kerning first=1142 second=1126 amount=-1  
kerning first=1142 second=44  amount=-2  
kerning first=1142 second=46  amount=-2  
kerning first=1142 second=58  amount=-2  
kerning first=1143 second=44  amount=-1  
kerning first=1143 second=46  amount=-1  
kerning first=1143 second=58  amount=-1  
kerning first=1168 second=1033 amount=-1  
kerning first=1168 second=1051 amount=-1  
kerning first=1168 second=118 amount=-1  
kerning first=1168 second=121 amount=-1  
kerning first=1168 second=1091 amount=-1  
kerning first=1168 second=1118 amount=-1  
kerning first=1168 second=1141 amount=-1  
kerning first=1168 second=1143 amount=-1  
kerning first=1168 second=1095 amount=-2  
kerning first=1168 second=1083 amount=-2  
kerning first=1168 second=1113 amount=-2  
kerning first=1168 second=111 amount=-1  
kerning first=1168 second=1086 amount=-1  
kerning first=1168 second=1139 amount=-1  
kerning first=1168 second=117 amount=-1  
kerning first=1168 second=122 amount=-1  
kerning first=1168 second=65  amount=-1  
kerning first=1168 second=1040 amount=-1  
kerning first=1168 second=1126 amount=-1  
kerning first=1168 second=44  amount=-3  
kerning first=1168 second=46  amount=-3  
kerning first=1168 second=58  amount=-3  
kerning first=1168 second=99  amount=-1  
kerning first=1168 second=100 amount=-1  
kerning first=1168 second=101 amount=-1  
kerning first=1168 second=103 amount=-1  
kerning first=1168 second=113 amount=-1  
kerning first=1168 second=1077 amount=-1  
kerning first=1168 second=1089 amount=-1  
kerning first=1168 second=1092 amount=-1  
kerning first=1168 second=1104 amount=-1  
kerning first=1168 second=1105 amount=-1  
kerning first=1168 second=1108 amount=-1  
kerning first=1168 second=1145 amount=-1  
kerning first=1168 second=1149 amount=-1  
kerning first=1168 second=1153 amount=-1  
kerning first=1168 second=1193 amount=-1  
kerning first=1168 second=120 amount=-1  
kerning first=1168 second=1078 amount=-1  
kerning first=1168 second=1093 amount=-1  
kerning first=1168 second=1175 amount=-1  
kerning first=1168 second=45  amount=-3  
kerning first=1168 second=109 amount=-1  
kerning first=1168 second=110 amount=-1  
kerning first=1168 second=112 amount=-1  
kerning first=1168 second=1075 amount=-1  
kerning first=1168 second=1080 amount=-1  
kerning first=1168 second=1081 amount=-1  
kerning first=1168 second=1082 amount=-1  
kerning first=1168 second=1084 amount=-1  
kerning first=1168 second=1085 amount=-1  
kerning first=1168 second=1087 amount=-1  
kerning first=1168 second=1088 amount=-1  
kerning first=1168 second=1094 amount=-1  
kerning first=1168 second=1096 amount=-1  
kerning first=1168 second=1097 amount=-1  
kerning first=1168 second=1100 amount=-1  
kerning first=1168 second=1102 amount=-1  
kerning first=1168 second=1107 amount=-1  
kerning first=1168 second=1114 amount=-1  
kerning first=1168 second=1116 amount=-1  
kerning first=1168 second=1117 amount=-1  
kerning first=1168 second=1163 amount=-1  
kerning first=1168 second=1179 amount=-1  
kerning first=1168 second=1187 amount=-1  
kerning first=1168 second=1189 amount=-1  
kerning first=1168 second=97  amount=-2  
kerning first=1168 second=1072 amount=-2  
kerning first=1168 second=115 amount=-2  
kerning first=1168 second=1109 amount=-2  
kerning first=1170 second=1033 amount=-1  
kerning first=1170 second=1051 amount=-1  
kerning first=1170 second=118 amount=-1  
kerning first=1170 second=121 amount=-1  
kerning first=1170 second=1091 amount=-1  
kerning first=1170 second=1118 amount=-1  
kerning first=1170 second=1141 amount=-1  
kerning first=1170 second=1143 amount=-1  
kerning first=1170 second=1095 amount=-2  
kerning first=1170 second=1083 amount=-2  
kerning first=1170 second=1113 amount=-2  
kerning first=1170 second=111 amount=-1  
kerning first=1170 second=1086 amount=-1  
kerning first=1170 second=1139 amount=-1  
kerning first=1170 second=117 amount=-1  
kerning first=1170 second=122 amount=-1  
kerning first=1170 second=65  amount=-1  
kerning first=1170 second=1040 amount=-1  
kerning first=1170 second=1126 amount=-1  
kerning first=1170 second=44  amount=-3  
kerning first=1170 second=46  amount=-3  
kerning first=1170 second=58  amount=-3  
kerning first=1170 second=99  amount=-1  
kerning first=1170 second=100 amount=-1  
kerning first=1170 second=101 amount=-1  
kerning first=1170 second=103 amount=-1  
kerning first=1170 second=113 amount=-1  
kerning first=1170 second=1077 amount=-1  
kerning first=1170 second=1089 amount=-1  
kerning first=1170 second=1092 amount=-1  
kerning first=1170 second=1104 amount=-1  
kerning first=1170 second=1105 amount=-1  
kerning first=1170 second=1108 amount=-1  
kerning first=1170 second=1145 amount=-1  
kerning first=1170 second=1149 amount=-1  
kerning first=1170 second=1153 amount=-1  
kerning first=1170 second=1193 amount=-1  
kerning first=1170 second=120 amount=-1  
kerning first=1170 second=1078 amount=-1  
kerning first=1170 second=1093 amount=-1  
kerning first=1170 second=1175 amount=-1  
kerning first=1170 second=45  amount=-3  
kerning first=1170 second=109 amount=-1  
kerning first=1170 second=110 amount=-1  
kerning first=1170 second=112 amount=-1  
kerning first=1170 second=1075 amount=-1  
kerning first=1170 second=1080 amount=-1  
kerning first=1170 second=1081 amount=-1  
kerning first=1170 second=1082 amount=-1  
kerning first=1170 second=1084 amount=-1  
kerning first=1170 second=1085 amount=-1  
kerning first=1170 second=1087 amount=-1  
kerning first=1170 second=1088 amount=-1  
kerning first=1170 second=1094 amount=-1  
kerning first=1170 second=1096 amount=-1  
kerning first=1170 second=1097 amount=-1  
kerning first=1170 second=1100 amount=-1  
kerning first=1170 second=1102 amount=-1  
kerning first=1170 second=1107 amount=-1  
kerning first=1170 second=1114 amount=-1  
kerning first=1170 second=1116 amount=-1  
kerning first=1170 second=1117 amount=-1  
kerning first=1170 second=1163 amount=-1  
kerning first=1170 second=1179 amount=-1  
kerning first=1170 second=1187 amount=-1  
kerning first=1170 second=1189 amount=-1  
kerning first=1170 second=97  amount=-2  
kerning first=1170 second=1072 amount=-2  
kerning first=1170 second=115 amount=-2  
kerning first=1170 second=1109 amount=-2  
kerning first=1178 second=1095 amount=-1  
kerning first=1180 second=1095 amount=-1  
kerning first=1182 second=1095 amount=-1  
kerning first=1184 second=1095 amount=-1  
